{
    "tv":
    {
        "playlist":[
            {
                "playerId": 33495,
                "type": "latest",
                "items": 25,
                "id": 0,
                "name": "Latest"
            },
            {
                
                "playerId": 33495,
                "type": "channel",
                "items": 25,
                "id": 119,
                "name": "Tech"
            },
            {
                "playerId": 33495,
                "type": "channel",
                "items": 25,
                "id": 120,
                "name": "Nature"
            },
            {
                "playerId": 33495,
                "type": "channel",
                "items": 25,
                "id": 121,
                "name": "Coocking & Healt"
            },
            {
                "playerId": 33495,
                "type": "channel",
                "items": 25,
                "id": 118,
                "name": "Sport"
            }
        ],
        "app_name": "Example App",
        "package_name": "BridTV.BridTVExample"
    }
}
